^C:\USERS\ANDRU\ONEDRIVE\РАБОЧИЙ СТОЛ\ВЯТГУ\4-ЫЙ КУРС\7 СЕМЕСТР\ПАРАЛЛЕЛЬНОЕ ПРОГРАММИРОВАНИЕ\LAB1\LAB1\DEBUG\LAB1.OBJ
C:\USERS\ANDRU\ONEDRIVE\Рабочий стол\ВятГУ\4-ый курс\7 семестр\Параллельное программирование\LAB1\DEBUG\LAB1.EXE
C:\USERS\ANDRU\ONEDRIVE\Рабочий стол\ВятГУ\4-ый курс\7 семестр\Параллельное программирование\LAB1\DEBUG\LAB1.ILK
C:\USERS\ANDRU\ONEDRIVE\РАБОЧИЙ СТОЛ\ВЯТГУ\4-ЫЙ КУРС\7 СЕМЕСТР\ПАРАЛЛЕЛЬНОЕ ПРОГРАММИРОВАНИЕ\LAB1\DEBUG\LAB1.PDB
