^C:\USERS\ANDRU\DOCUMENTS\МОИ ДОКУМЕНТЫ\ВЯТГУ\4-ЫЙ КУРС\7 СЕМЕСТР\ПАРАЛЛЕЛЬНОЕ ПРОГРАММИРОВАНИЕ\LAB4\LAB4\TABLE_PRINTER.CPP|C:\USERS\ANDRU\DOCUMENTS\МОИ ДОКУМЕНТЫ\ВЯТГУ\4-ЫЙ КУРС\7 СЕМЕСТР\ПАРАЛЛЕЛЬНОЕ ПРОГРАММИРОВАНИЕ\LAB4\LAB4\TIME_TABLE.CPP|C:\USERS\ANDRU\DOCUMENTS\МОИ ДОКУМЕНТЫ\ВЯТГУ\4-ЫЙ КУРС\7 СЕМЕСТР\ПАРАЛЛЕЛЬНОЕ ПРОГРАММИРОВАНИЕ\LAB6\LAB6\LAB6.CPP
C:\USERS\ANDRU\DOCUMENTS\Мои документы\ВятГУ\4-ый курс\7 семестр\Параллельное программирование\LAB6\LAB6\RELEASE\VC142.PDB
C:\USERS\ANDRU\DOCUMENTS\Мои документы\ВятГУ\4-ый курс\7 семестр\Параллельное программирование\LAB6\LAB6\RELEASE\TIME_TABLE.OBJ
C:\USERS\ANDRU\DOCUMENTS\Мои документы\ВятГУ\4-ый курс\7 семестр\Параллельное программирование\LAB6\LAB6\RELEASE\TABLE_PRINTER.OBJ
^C:\USERS\ANDRU\DOCUMENTS\МОИ ДОКУМЕНТЫ\ВЯТГУ\4-ЫЙ КУРС\7 СЕМЕСТР\ПАРАЛЛЕЛЬНОЕ ПРОГРАММИРОВАНИЕ\LAB4\LAB4\TABLE_PRINTER.CPP
C:\USERS\ANDRU\DOCUMENTS\МОИ ДОКУМЕНТЫ\ВЯТГУ\4-ЫЙ КУРС\7 СЕМЕСТР\ПАРАЛЛЕЛЬНОЕ ПРОГРАММИРОВАНИЕ\LAB6\LAB6\RELEASE\TABLE_PRINTER.OBJ
^C:\USERS\ANDRU\DOCUMENTS\МОИ ДОКУМЕНТЫ\ВЯТГУ\4-ЫЙ КУРС\7 СЕМЕСТР\ПАРАЛЛЕЛЬНОЕ ПРОГРАММИРОВАНИЕ\LAB4\LAB4\TIME_TABLE.CPP
C:\USERS\ANDRU\DOCUMENTS\МОИ ДОКУМЕНТЫ\ВЯТГУ\4-ЫЙ КУРС\7 СЕМЕСТР\ПАРАЛЛЕЛЬНОЕ ПРОГРАММИРОВАНИЕ\LAB6\LAB6\RELEASE\TIME_TABLE.OBJ
C:\USERS\ANDRU\DOCUMENTS\Мои документы\ВятГУ\4-ый курс\7 семестр\Параллельное программирование\LAB6\LAB6\RELEASE\VC142.PDB
^C:\USERS\ANDRU\DOCUMENTS\МОИ ДОКУМЕНТЫ\ВЯТГУ\4-ЫЙ КУРС\7 СЕМЕСТР\ПАРАЛЛЕЛЬНОЕ ПРОГРАММИРОВАНИЕ\LAB6\LAB6\LAB6.CPP|C:\USERS\ANDRU\DOCUMENTS\МОИ ДОКУМЕНТЫ\ВЯТГУ\4-ЫЙ КУРС\7 СЕМЕСТР\ПАРАЛЛЕЛЬНОЕ ПРОГРАММИРОВАНИЕ\LAB6\LAB6\TABLE_PRINTER.CPP|C:\USERS\ANDRU\DOCUMENTS\МОИ ДОКУМЕНТЫ\ВЯТГУ\4-ЫЙ КУРС\7 СЕМЕСТР\ПАРАЛЛЕЛЬНОЕ ПРОГРАММИРОВАНИЕ\LAB6\LAB6\TIME_TABLE.CPP
C:\USERS\ANDRU\DOCUMENTS\Мои документы\ВятГУ\4-ый курс\7 семестр\Параллельное программирование\LAB6\LAB6\RELEASE\VC142.PDB
C:\USERS\ANDRU\DOCUMENTS\Мои документы\ВятГУ\4-ый курс\7 семестр\Параллельное программирование\LAB6\LAB6\RELEASE\TIME_TABLE.OBJ
C:\USERS\ANDRU\DOCUMENTS\Мои документы\ВятГУ\4-ый курс\7 семестр\Параллельное программирование\LAB6\LAB6\RELEASE\TABLE_PRINTER.OBJ
C:\USERS\ANDRU\DOCUMENTS\Мои документы\ВятГУ\4-ый курс\7 семестр\Параллельное программирование\LAB6\LAB6\RELEASE\LAB6.OBJ
^C:\USERS\ANDRU\DOCUMENTS\МОИ ДОКУМЕНТЫ\ВЯТГУ\4-ЫЙ КУРС\7 СЕМЕСТР\ПАРАЛЛЕЛЬНОЕ ПРОГРАММИРОВАНИЕ\LAB6\LAB6\TABLE_PRINTER.CPP
C:\USERS\ANDRU\DOCUMENTS\МОИ ДОКУМЕНТЫ\ВЯТГУ\4-ЫЙ КУРС\7 СЕМЕСТР\ПАРАЛЛЕЛЬНОЕ ПРОГРАММИРОВАНИЕ\LAB6\LAB6\RELEASE\VC142.PDB
^C:\USERS\ANDRU\DOCUMENTS\МОИ ДОКУМЕНТЫ\ВЯТГУ\4-ЫЙ КУРС\7 СЕМЕСТР\ПАРАЛЛЕЛЬНОЕ ПРОГРАММИРОВАНИЕ\LAB6\LAB6\TIME_TABLE.CPP
C:\USERS\ANDRU\DOCUMENTS\Мои документы\ВятГУ\4-ый курс\7 семестр\Параллельное программирование\LAB6\LAB6\RELEASE\VC142.PDB
C:\USERS\ANDRU\DOCUMENTS\Мои документы\ВятГУ\4-ый курс\7 семестр\Параллельное программирование\LAB6\LAB6\RELEASE\TIME_TABLE.OBJ
^C:\USERS\ANDRU\DOCUMENTS\МОИ ДОКУМЕНТЫ\ВЯТГУ\4-ЫЙ КУРС\7 СЕМЕСТР\ПАРАЛЛЕЛЬНОЕ ПРОГРАММИРОВАНИЕ\LAB6\LAB6\LAB6.CPP
C:\USERS\ANDRU\DOCUMENTS\Мои документы\ВятГУ\4-ый курс\7 семестр\Параллельное программирование\LAB6\LAB6\RELEASE\VC142.PDB
C:\USERS\ANDRU\DOCUMENTS\Мои документы\ВятГУ\4-ый курс\7 семестр\Параллельное программирование\LAB6\LAB6\RELEASE\LAB6.OBJ
