^C:\USERS\ANDRU\ONEDRIVE\РАБОЧИЙ СТОЛ\ВЯТГУ\4-ЫЙ КУРС\7 СЕМЕСТР\ПАРАЛЛЕЛЬНОЕ ПРОГРАММИРОВАНИЕ\LAB4\LAB4\RELEASE\ARRAY_SPLITTER.OBJ|C:\USERS\ANDRU\ONEDRIVE\РАБОЧИЙ СТОЛ\ВЯТГУ\4-ЫЙ КУРС\7 СЕМЕСТР\ПАРАЛЛЕЛЬНОЕ ПРОГРАММИРОВАНИЕ\LAB4\LAB4\RELEASE\EXPO_MEASURER.OBJ|C:\USERS\ANDRU\ONEDRIVE\РАБОЧИЙ СТОЛ\ВЯТГУ\4-ЫЙ КУРС\7 СЕМЕСТР\ПАРАЛЛЕЛЬНОЕ ПРОГРАММИРОВАНИЕ\LAB4\LAB4\RELEASE\LAB4.OBJ|C:\USERS\ANDRU\ONEDRIVE\РАБОЧИЙ СТОЛ\ВЯТГУ\4-ЫЙ КУРС\7 СЕМЕСТР\ПАРАЛЛЕЛЬНОЕ ПРОГРАММИРОВАНИЕ\LAB4\LAB4\RELEASE\MEASURER.OBJ|C:\USERS\ANDRU\ONEDRIVE\РАБОЧИЙ СТОЛ\ВЯТГУ\4-ЫЙ КУРС\7 СЕМЕСТР\ПАРАЛЛЕЛЬНОЕ ПРОГРАММИРОВАНИЕ\LAB4\LAB4\RELEASE\TABLE_PRINTER.OBJ|C:\USERS\ANDRU\ONEDRIVE\РАБОЧИЙ СТОЛ\ВЯТГУ\4-ЫЙ КУРС\7 СЕМЕСТР\ПАРАЛЛЕЛЬНОЕ ПРОГРАММИРОВАНИЕ\LAB4\LAB4\RELEASE\THREADS_MEASURER.OBJ|C:\USERS\ANDRU\ONEDRIVE\РАБОЧИЙ СТОЛ\ВЯТГУ\4-ЫЙ КУРС\7 СЕМЕСТР\ПАРАЛЛЕЛЬНОЕ ПРОГРАММИРОВАНИЕ\LAB4\LAB4\RELEASE\TIME_TABLE.OBJ
C:\USERS\ANDRU\ONEDRIVE\Рабочий стол\ВятГУ\4-ый курс\7 семестр\Параллельное программирование\LAB4\RELEASE\LAB4.EXE
C:\USERS\ANDRU\ONEDRIVE\РАБОЧИЙ СТОЛ\ВЯТГУ\4-ЫЙ КУРС\7 СЕМЕСТР\ПАРАЛЛЕЛЬНОЕ ПРОГРАММИРОВАНИЕ\LAB4\RELEASE\LAB4.PDB
