^C:\USERS\ANDRU\ONEDRIVE\РАБОЧИЙ СТОЛ\ВЯТГУ\4-ЫЙ КУРС\7 СЕМЕСТР\ПАРАЛЛЕЛЬНОЕ ПРОГРАММИРОВАНИЕ\LAB4\LAB4\RELEASE\ARRAY_SPLITTER.OBJ|C:\USERS\ANDRU\ONEDRIVE\РАБОЧИЙ СТОЛ\ВЯТГУ\4-ЫЙ КУРС\7 СЕМЕСТР\ПАРАЛЛЕЛЬНОЕ ПРОГРАММИРОВАНИЕ\LAB4\LAB4\RELEASE\EXPO_MEASURER.OBJ|C:\USERS\ANDRU\ONEDRIVE\РАБОЧИЙ СТОЛ\ВЯТГУ\4-ЫЙ КУРС\7 СЕМЕСТР\ПАРАЛЛЕЛЬНОЕ ПРОГРАММИРОВАНИЕ\LAB4\LAB4\RELEASE\LAB4.OBJ|C:\USERS\ANDRU\ONEDRIVE\РАБОЧИЙ СТОЛ\ВЯТГУ\4-ЫЙ КУРС\7 СЕМЕСТР\ПАРАЛЛЕЛЬНОЕ ПРОГРАММИРОВАНИЕ\LAB4\LAB4\RELEASE\MEASURER.OBJ|C:\USERS\ANDRU\ONEDRIVE\РАБОЧИЙ СТОЛ\ВЯТГУ\4-ЫЙ КУРС\7 СЕМЕСТР\ПАРАЛЛЕЛЬНОЕ ПРОГРАММИРОВАНИЕ\LAB4\LAB4\RELEASE\TABLE_PRINTER.OBJ|C:\USERS\ANDRU\ONEDRIVE\РАБОЧИЙ СТОЛ\ВЯТГУ\4-ЫЙ КУРС\7 СЕМЕСТР\ПАРАЛЛЕЛЬНОЕ ПРОГРАММИРОВАНИЕ\LAB4\LAB4\RELEASE\THREADS_MEASURER.OBJ|C:\USERS\ANDRU\ONEDRIVE\РАБОЧИЙ СТОЛ\ВЯТГУ\4-ЫЙ КУРС\7 СЕМЕСТР\ПАРАЛЛЕЛЬНОЕ ПРОГРАММИРОВАНИЕ\LAB4\LAB4\RELEASE\TIME_TABLE.OBJ
/OUT:"C:\USERS\ANDRU\ONEDRIVE\РАБОЧИЙ СТОЛ\ВЯТГУ\4-ЫЙ КУРС\7 СЕМЕСТР\ПАРАЛЛЕЛЬНОЕ ПРОГРАММИРОВАНИЕ\LAB4\RELEASE\LAB4.EXE" /INCREMENTAL:NO /NOLOGO KERNEL32.LIB USER32.LIB GDI32.LIB WINSPOOL.LIB COMDLG32.LIB ADVAPI32.LIB SHELL32.LIB OLE32.LIB OLEAUT32.LIB UUID.LIB ODBC32.LIB ODBCCP32.LIB /MANIFEST /MANIFESTUAC:"level='asInvoker' uiAccess='false'" /manifest:embed /DEBUG /PDB:"C:\USERS\ANDRU\ONEDRIVE\РАБОЧИЙ СТОЛ\ВЯТГУ\4-ЫЙ КУРС\7 СЕМЕСТР\ПАРАЛЛЕЛЬНОЕ ПРОГРАММИРОВАНИЕ\LAB4\RELEASE\LAB4.PDB" /SUBSYSTEM:CONSOLE /OPT:REF /OPT:ICF /LTCG:incremental /TLBID:1 /DYNAMICBASE /NXCOMPAT /IMPLIB:"C:\USERS\ANDRU\ONEDRIVE\РАБОЧИЙ СТОЛ\ВЯТГУ\4-ЫЙ КУРС\7 СЕМЕСТР\ПАРАЛЛЕЛЬНОЕ ПРОГРАММИРОВАНИЕ\LAB4\RELEASE\LAB4.LIB" /MACHINE:X86 /SAFESEH RELEASE\ARRAY_SPLITTER.OBJ
RELEASE\EXPO_MEASURER.OBJ
RELEASE\LAB4.OBJ
RELEASE\MEASURER.OBJ
RELEASE\TABLE_PRINTER.OBJ
RELEASE\THREADS_MEASURER.OBJ
RELEASE\TIME_TABLE.OBJ
