^C:\USERS\ANDRU\SOURCE\REPOS\LAB5\LAB5\RELEASE\LAB5.OBJ|C:\USERS\ANDRU\SOURCE\REPOS\LAB5\LAB5\RELEASE\TABLE_PRINTER.OBJ|C:\USERS\ANDRU\SOURCE\REPOS\LAB5\LAB5\RELEASE\TIME_TABLE.OBJ
/OUT:"C:\USERS\ANDRU\SOURCE\REPOS\LAB5\RELEASE\LAB5.EXE" /INCREMENTAL:NO /NOLOGO KERNEL32.LIB USER32.LIB GDI32.LIB WINSPOOL.LIB COMDLG32.LIB ADVAPI32.LIB SHELL32.LIB OLE32.LIB OLEAUT32.LIB UUID.LIB ODBC32.LIB ODBCCP32.LIB /MANIFEST /MANIFESTUAC:"level='asInvoker' uiAccess='false'" /manifest:embed /DEBUG /PDB:"C:\USERS\ANDRU\SOURCE\REPOS\LAB5\RELEASE\LAB5.PDB" /SUBSYSTEM:CONSOLE /OPT:REF /OPT:ICF /LTCG:incremental /TLBID:1 /DYNAMICBASE /NXCOMPAT /IMPLIB:"C:\USERS\ANDRU\SOURCE\REPOS\LAB5\RELEASE\LAB5.LIB" /MACHINE:X86 /SAFESEH RELEASE\TABLE_PRINTER.OBJ
RELEASE\TIME_TABLE.OBJ
RELEASE\LAB5.OBJ
